{
  "Car": [
    {
      "name": "Acura",
      "model_options_attributes": [ {"name": "CL"}, {"name": "ILX"}, {"name": "Integra"}, {"name": "Legend"}, {"name": "MDX"}, {"name": "NSX"}, {"name": "RDX"}, {"name": "RL"}, {"name": "RLX"}, {"name": "RSX"}, {"name": "SLX"}, {"name": "TL"}, {"name": "TLX"}, {"name": "TSX"}, {"name": "Vigor"}, {"name": "ZDX"}, {"name": "Other"} ]
    },
    {
      "name": "Alfa Romeo",
      "model_options_attributes": [ {"name": "164"}, {"name": "4C"}, {"name": "8C"}, {"name": "Giulia"}, {"name": "GTV"}, {"name": "Milano"}, {"name": "Montreal"}, {"name": "Spider"}, {"name": "Other"} ]
    },
    {
      "name": "AMC",
      "model_options_attributes": [ {"name": "AMX"}, {"name": "Gremlin"}, {"name": "Hornet"}, {"name": "Javelin"}, {"name": "Pacer"}, {"name": "Other"} ]
    },
    {
      "name": "Aston Martin",
      "model_options_attributes": [ {"name": "DB7"}, {"name": "DB9"}, {"name": "DB11"}, {"name": "DBS"}, {"name": "Rapide"}, {"name": "Vanquish"}, {"name": "Vantage"}, {"name": "Other"} ]
    },
    {
      "name": "Audi",
      "model_options_attributes": [ {"name": "80"}, {"name": "90"}, {"name": "100"}, {"name": "A3"}, {"name": "A4"}, {"name": "A5"}, {"name": "A6"}, {"name": "A7"}, {"name": "A8"}, {"name": "Allroad"}, {"name": "Cabriolet"}, {"name": "Q5"}, {"name": "Q7"}, {"name": "R8"}, {"name": "RS4"}, {"name": "RS5"}, {"name": "RS6"}, {"name": "RS7"}, {"name": "S3"}, {"name": "S4"}, {"name": "S5"}, {"name": "S6"}, {"name": "S8"}, {"name": "SQ5"}, {"name": "TT"}, {"name": "Other"} ]
    },
    {
      "name": "Austin Healey",
      "model_options_attributes": [ {"name": "3000"}, {"name": "Sprite"}, {"name": "Other"} ]
    },
    {
      "name": "Bentley",
      "model_options_attributes": [ {"name": "Arnage"}, {"name": "Azure"}, {"name": "Bentayga"}, {"name": "Brooklands"}, {"name": "Continental Flying Spur"}, {"name": "Continental GT"}, {"name": "Flying Spur"}, {"name": "Mulsanne"}, {"name": "Turbo R"}, {"name": "Other"} ]
    },
    {
      "name": "BMW",
      "model_options_attributes": [ {"name": "2002"}, {"name": "1-Series"}, {"name": "2-Series"}, {"name": "3-Series"}, {"name": "4-Series"}, {"name": "5-Series"}, {"name": "6-Series"}, {"name": "7-Series"}, {"name": "8-Series"}, {"name": "i3"}, {"name": "i8"}, {"name": "M3"}, {"name": "M4"}, {"name": "M5"}, {"name": "M6"}, {"name": "M Roadster & Coupe"}, {"name": "X1"}, {"name": "X3"}, {"name": "X5"}, {"name": "X6"}, {"name": "Z3"}, {"name": "Z4"}, {"name": "Z8"}, {"name": "Other"} ]
    },
    {
      "name": "Bugatti",
      "model_options_attributes": [ {"name": "Veyron"}, {"name": "Other"} ]
    },
    {
      "name": "Buick",
      "model_options_attributes": [ {"name": "Cascada"}, {"name": "Century"}, {"name": "Electra"}, {"name": "Enclave"}, {"name": "Encore"}, {"name": "Envision"}, {"name": "Grand National"}, {"name": "Lacrosse"}, {"name": "LeSabre"}, {"name": "Lucerne"}, {"name": "Park Avenue"}, {"name": "Rainier"}, {"name": "Reatta"}, {"name": "Regal"}, {"name": "Rendezvous"}, {"name": "Riviera"}, {"name": "Roadmaster"}, {"name": "Skylark"}, {"name": "Terraza"}, {"name": "Verano"}, {"name": "Other"} ]
    },
    {
      "name": "Cadillac",
      "model_options_attributes": [ {"name": "Allante"}, {"name": "ATS"}, {"name": "Brougham"}, {"name": "Catera"}, {"name": "CTS"}, {"name": "DeVille"}, {"name": "DTS"}, {"name": "Eldorado"}, {"name": "ELR"}, {"name": "Escalade"}, {"name": "Fleetwood"}, {"name": "Seville"}, {"name": "SRX"}, {"name": "STS"}, {"name": "XLR"}, {"name": "XT5"}, {"name": "XTS"}, {"name": "Other"} ]
    },
    {
      "name": "Chevrolet",
      "model_options_attributes": [ {"name": "Astro"}, {"name": "Avalanche"}, {"name": "Aveo"}, {"name": "Bel Air/150/210"}, {"name": "Beretta"}, {"name": "Blazer"}, {"name": "C/K Pickup 1500"}, {"name": "C/K Pickup 2500"}, {"name": "C/K Pickup 3500"}, {"name": "C-10"}, {"name": "Camaro"}, {"name": "Caprice"}, {"name": "Captiva Sport"}, {"name": "Cavalier"}, {"name": "Chevelle"}, {"name": "Cheyenne"}, {"name": "Cobalt"}, {"name": "Colorado"}, {"name": "Corsica"}, {"name": "Corvair"}, {"name": "Corvette"}, {"name": "Cruze"}, {"name": "El Camino"}, {"name": "Equinox"}, {"name": "Express"}, {"name": "G20 Van"}, {"name": "HHR"}, {"name": "Impala"}, {"name": "Lumina"}, {"name": "Malibu"}, {"name": "Monte Carlo"}, {"name": "Nomad"}, {"name": "Nova"}, {"name": "Prizm"}, {"name": "S-10"}, {"name": "Silverado 1500"}, {"name": "Silverado 2500"}, {"name": "Silverado 3500"}, {"name": "Sonic"}, {"name": "Spark"}, {"name": "SS"}, {"name": "SSR"}, {"name": "Suburban"}, {"name": "Tahoe"}, {"name": "Tracker"}, {"name": "Trailblazer"}, {"name": "Traverse"}, {"name": "Trax"}, {"name": "Uplander"}, {"name": "Venture"}, {"name": "Volt"}, {"name": "Other"} ]
    },
    {
      "name": "Chrysler",
      "model_options_attributes": [ {"name": "200 Series"}, {"name": "300 Series"}, {"name": "Aspen"}, {"name": "Cirrus"}, {"name": "Concorde"}, {"name": "Cordoba"}, {"name": "Crossfire"}, {"name": "Imperial"}, {"name": "LeBaron"}, {"name": "LHS"}, {"name": "New Yorker"}, {"name": "Newport"}, {"name": "Pacifica"}, {"name": "Prowler"}, {"name": "PT Cruiser"}, {"name": "Royal"}, {"name": "Saratoga"}, {"name": "Sebring"}, {"name": "Town & Country"}, {"name": "Other"} ]
    },
    {
      "name": "Citroën",
      "model_options_attributes": [ {"name": "Berlingo"}, {"name": "C1"}, {"name": "C2"}, {"name": "C3"}, {"name": "C3 Picasso"}, {"name": "C4"}, {"name": "C4 Aircross"}, {"name": "C4 Cactus"}, {"name": "C4 Grand Picasso"}, {"name": "C4 Picasso"}, {"name": "C4 sedan"}, {"name": "C5"}, {"name": "C5 Aircross"}, {"name": "C6"}, {"name": "C-Crosser"}, {"name": "C-Elysee"}, {"name": "Xsara Picasso"} ]
    },
    {
      "name": "Cord",
      "model_options_attributes": [ {"name": "A 1929 L-29 Phaeton"}, {"name": "1931 L-29 Convertible Coupé"}, {"name": "1930 L-29"}, {"name": "Model 810/812"} ]
    },
    {
      "name": "Daewoo",
      "model_options_attributes": [ {"name": "Lanos"}, {"name": "Leganza"}, {"name": "Nubira"}, {"name": "Other"} ]
    },
    {
      "name": "Daihatsu",
      "model_options_attributes": [ {"name": "Charade"}, {"name": "Other"} ]
    },
    {
      "name": "Datsun >",
      "model_options_attributes": [ {"name": "Z-Series"}, {"name": "Other"} ]
    },
    {
      "name": "De Tomaso",
      "model_options_attributes": [ {"name": "Mangusta"}, {"name": "Other"} ]
    },
    {
      "name": "Dodge",
      "model_options_attributes": [ {"name": "Avenger"}, {"name": "Caliber"}, {"name": "Caravan"}, {"name": "Challenger"}, {"name": "Charger"}, {"name": "Colt"}, {"name": "Coronet"}, {"name": "Dakota"}, {"name": "Dart"}, {"name": "Daytona"}, {"name": "Durango"}, {"name": "Dynasty"}, {"name": "Grand Caravan"}, {"name": "Intrepid"}, {"name": "Journey"}, {"name": "Lancer"}, {"name": "Magnum"}, {"name": "Monaco"}, {"name": "Neon"}, {"name": "Nitro"}, {"name": "Polara"}, {"name": "Power Wagon"}, {"name": "Ram 1500"}, {"name": "Ram 2500"}, {"name": "Ram 3500"}, {"name": "Ram 4500"}, {"name": "Ram 5500"}, {"name": "Ram Van"}, {"name": "Ramcharger"}, {"name": "Shadow"}, {"name": "Spirit"}, {"name": "Sprinter"}, {"name": "Stealth"}, {"name": "Stratus"}, {"name": "Viper"}, {"name": "Other"} ]
    },
    {
      "name": "Eagle",
      "model_options_attributes": [ {"name": "Talon"}, {"name": "Vision"}, {"name": "Other"} ]
    },
    {
      "name": "Ferrari",
      "model_options_attributes": [ {"name": "308"}, {"name": "328"}, {"name": "348"}, {"name": "355"}, {"name": "360"}, {"name": "430"}, {"name": "456"}, {"name": "458"}, {"name": "488"}, {"name": "550"}, {"name": "575"}, {"name": "599"}, {"name": "612"}, {"name": "California"}, {"name": "Enzo"}, {"name": "FF"}, {"name": "F12 Berlinetta"}, {"name": "F40"}, {"name": "F50"}, {"name": "GTC4Lusso"}, {"name": "Mondial"}, {"name": "Testarossa"}, {"name": "Other"} ]
    },
    {
      "name": "Fiat",
      "model_options_attributes": [ {"name": "124 Spider"}, {"name": "500"}, {"name": "500L"}, {"name": "500X"}, {"name": "Brava"}, {"name": "Punto"}, {"name": "Stilo"}, {"name": "Other"} ]
    },
    {
      "name": "Fisker",
      "model_options_attributes": [ {"name": "Karma"}, {"name": "Other"} ]
    },
    {
      "name": "Ford",
      "model_options_attributes": [ {"name": "Aerostar"}, {"name": "Aspire"}, {"name": "Bronco"}, {"name": "Bronco II"}, {"name": "C-Max"}, {"name": "Contour"}, {"name": "Crown Victoria"}, {"name": "Edge"}, {"name": "Escape"}, {"name": "Escort"}, {"name": "E-Series Van"}, {"name": "Excursion"}, {"name": "Expedition"}, {"name": "Explorer"}, {"name": "Explorer Sport"}, {"name": "Explorer Sport Trac"}, {"name": "F-100"}, {"name": "F-150"}, {"name": "F-250"}, {"name": "F-350"}, {"name": "F-450"}, {"name": "F-550"}, {"name": "Fairlane"}, {"name": "Fairmont"}, {"name": "Falcon"}, {"name": "Festiva"}, {"name": "Fiesta"}, {"name": "Five Hundred"}, {"name": "Flex"}, {"name": "Focus"}, {"name": "Ford GT"}, {"name": "Freestar"}, {"name": "Fusion"}, {"name": "Galaxie"}, {"name": "Ka"}, {"name": "Model A"}, {"name": "Model T"}, {"name": "Mondeo"}, {"name": "Mustang"}, {"name": "Probe"}, {"name": "Ranchero"}, {"name": "Ranger"}, {"name": "Taurus"}, {"name": "Taurus X/FreeStyle"}, {"name": "Tempo"}, {"name": "Thunderbird"}, {"name": "Torino"}, {"name": "Transit Connect"}, {"name": "Verve"}, {"name": "Windstar"}, {"name": "Other"} ]
    },
    {
      "name": "Genesis",
      "model_options_attributes": [ {"name": "G80"}, {"name": "G90"}, {"name": "Other"} ]
    },
    {
      "name": "Geo",
      "model_options_attributes": [ {"name": "Metro"}, {"name": "Storm"}, {"name": "Other"} ]
    },
    {
      "name": "GMC",
      "model_options_attributes": [ {"name": "Acadia"}, {"name": "Canyon"}, {"name": "Envoy"}, {"name": "Jimmy"}, {"name": "Safari"}, {"name": "Savana"}, {"name": "Sierra 1500"}, {"name": "Sierra 2500"}, {"name": "Sierra 3500"}, {"name": "Sonoma"}, {"name": "Suburban"}, {"name": "Terrain"}, {"name": "Typhoon"}, {"name": "Vandura"}, {"name": "Yukon"}, {"name": "Other"} ]
    },
    {
      "name": "Honda",
      "model_options_attributes": [ {"name": "Accord"}, {"name": "Accord Crosstour"}, {"name": "Accord Plug-In"}, {"name": "Civic"}, {"name": "CR-V"}, {"name": "CRX"}, {"name": "CR-Z"}, {"name": "Crosstour"}, {"name": "Del Sol"}, {"name": "Element"}, {"name": "Fit"}, {"name": "HR-V"}, {"name": "Insight"}, {"name": "Odyssey"}, {"name": "Passport"}, {"name": "Pilot"}, {"name": "Prelude"}, {"name": "Ridgeline"}, {"name": "S2000"}, {"name": "Other"} ]
    },
    {
      "name": "Hummer",
      "model_options_attributes": [ {"name": "H1"}, {"name": "H2"}, {"name": "H3"}, {"name": "H3T"}, {"name": "Other"} ]
    },
    {
      "name": "Hyundai",
      "model_options_attributes": [ {"name": "Accent"}, {"name": "Azera"}, {"name": "Elantra"}, {"name": "Entourage"}, {"name": "Equus"}, {"name": "Excel"}, {"name": "Genesis"}, {"name": "IONIQ"}, {"name": "Santa Fe"}, {"name": "Scoupe"}, {"name": "Sonata"}, {"name": "Tiburon"}, {"name": "Tucson"}, {"name": "Veloster"}, {"name": "Veracruz"}, {"name": "XG300"}, {"name": "XG350"}, {"name": "Other"} ]
    },
    {
      "name": "Infiniti",
      "model_options_attributes": [ {"name": "EX"}, {"name": "FX"}, {"name": "G"}, {"name": "G35"}, {"name": "G37"}, {"name": "I"}, {"name": "I35"}, {"name": "J30"}, {"name": "JX"}, {"name": "M"}, {"name": "M30"}, {"name": "M35"}, {"name": "M45"}, {"name": "Q45"}, {"name": "Q50"}, {"name": "Q60"}, {"name": "Q70"}, {"name": "QX4"}, {"name": "QX50"}, {"name": "QX56"}, {"name": "QX60"}, {"name": "QX70"}, {"name": "QX80"}, {"name": "Other"} ]
    },
    {
      "name": "International Harvester",
      "model_options_attributes": [ {"name": "Scout"}, {"name": "Other"} ]
    },
    {
      "name": "Isuzu",
      "model_options_attributes": [ {"name": "Amigo"}, {"name": "Ascender"}, {"name": "Axiom"}, {"name": "Hombre"}, {"name": "Impulse"}, {"name": "Oasis"}, {"name": "Rodeo"}, {"name": "Stylus"}, {"name": "Trooper"}, {"name": "VehiCROSS"}, {"name": "Other"} ]
    },
    {
      "name": "Jaguar",
      "model_options_attributes": [ {"name": "E-Type"}, {"name": "F-Type"}, {"name": "F-Pace"}, {"name": "S-Type"}, {"name": "XE"}, {"name": "XF"}, {"name": "XJ"}, {"name": "XJ6"}, {"name": "XJ8"}, {"name": "XJ12"}, {"name": "XJR"}, {"name": "XJS"}, {"name": "XK"}, {"name": "XK8"}, {"name": "XKR"}, {"name": "X-Type"}, {"name": "Other"} ]
    },
    {
      "name": "Jeep",
      "model_options_attributes": [ {"name": "Cherokee"}, {"name": "CJ"}, {"name": "Comanche"}, {"name": "Commander"}, {"name": "Commando"}, {"name": "Compass"}, {"name": "Grand Cherokee"}, {"name": "Liberty"}, {"name": "Patriot"}, {"name": "Renegade"}, {"name": "Wagoneer"}, {"name": "Wrangler"}, {"name": "Other"} ]
    },
    {
      "name": "Kia",
      "model_options_attributes": [ {"name": "Amanti"}, {"name": "Borrego"}, {"name": "Cadenza"}, {"name": "Forte"}, {"name": "K900"}, {"name": "Niro"}, {"name": "Optima"}, {"name": "Rio"}, {"name": "Rondo"}, {"name": "Sedona"}, {"name": "Sephia"}, {"name": "Sorento"}, {"name": "Soul"}, {"name": "Spectra"}, {"name": "Sportage"}, {"name": "Other"} ]
    },
    {
      "name": "Lamborghini",
      "model_options_attributes": [ {"name": "Aventador"}, {"name": "Countach"}, {"name": "Diablo"}, {"name": "Espada"}, {"name": "Gallardo"}, {"name": "Huracan"}, {"name": "Murcielago"}, {"name": "Other"} ]
    },
    {
      "name": "Lancia",
      "model_options_attributes": [ {"name": "Fulvia"}, {"name": "Other"} ]
    },
    {
      "name": "Land Rover",
      "model_options_attributes": [ {"name": "Defender"}, {"name": "Discovery"}, {"name": "Discovery Sport"}, {"name": "Evoque"}, {"name": "Freelander"}, {"name": "LR2"}, {"name": "LR3"}, {"name": "LR4"}, {"name": "Range Rover"}, {"name": "Range Rover Sport"}, {"name": "Other"} ]
    },
    {
      "name": "Lexus",
      "model_options_attributes": [ {"name": "CT"}, {"name": "CT 200h"}, {"name": "ES"}, {"name": "ES300h"}, {"name": "ES 350"}, {"name": "GS"}, {"name": "GS200t"}, {"name": "GS F"}, {"name": "GX"}, {"name": "HS"}, {"name": "IS"}, {"name": "IS200t"}, {"name": "LS"}, {"name": "LX"}, {"name": "LFA"}, {"name": "NX"}, {"name": "NX200t"}, {"name": "NX300h"}, {"name": "RC"}, {"name": "RC350"}, {"name": "RC F"}, {"name": "RX"}, {"name": "SC"}, {"name": "Other"} ]
    },
    {
      "name": "Lincoln",
      "model_options_attributes": [ {"name": "Aviator"}, {"name": "Blackwood"}, {"name": "Continental"}, {"name": "LS"}, {"name": "Mark Series"}, {"name": "MKC"}, {"name": "MKS"}, {"name": "MKT"}, {"name": "MKX"}, {"name": "MKZ/Zephyr"}, {"name": "Navigator"}, {"name": "Town Car"}, {"name": "Other"} ]
    },
    {
      "name": "Lotus",
      "model_options_attributes": [ {"name": "Elise"}, {"name": "Esprit"}, {"name": "Evora"}, {"name": "Exige"}, {"name": "Super Seven"}, {"name": "Other"} ]
    },
    {
      "name": "Maserati",
      "model_options_attributes": [ {"name": "Coupe"}, {"name": "Ghibli"}, {"name": "Gran Sport"}, {"name": "Gran Turismo"}, {"name": "Levante"}, {"name": "Quattroporte"}, {"name": "Spyder"}, {"name": "Other"} ]
    },
    {
      "name": "Maybach",
      "model_options_attributes": [ {"name": "57"}, {"name": "62"}, {"name": "Exelero"}, {"name": "57S"}, {"name": "62S"}, {"name": "Landaulet"}, {"name": "57 Zeppelin"}, {"name": "62 Zeppelin"}, {"name": "Guard"}, {"name": "Other"} ]
    },
    {
      "name": "Mazda",
      "model_options_attributes": [ {"name": "323"}, {"name": "626"}, {"name": "929"}, {"name": "B-Series Pickups"}, {"name": "CX-3"}, {"name": "CX-5"}, {"name": "CX-7"}, {"name": "CX-9"}, {"name": "2"}, {"name": "3"}, {"name": "5"}, {"name": "6"}, {"name": "Millenia"}, {"name": "MPV"}, {"name": "MX-3"}, {"name": "MX-5 Miata"}, {"name": "MX-6"}, {"name": "Navajo"}, {"name": "Protege"}, {"name": "RX-7"}, {"name": "RX-8"}, {"name": "Tribute"}, {"name": "Other"} ]
    },
    {
      "name": "McLaren",
      "model_options_attributes": [ {"name": "540C"}, {"name": "570"}, {"name": "650S"}, {"name": "675LT"}, {"name": "MP4-12C"}, {"name": "P1"}, {"name": "Other"} ]
    },
    {
      "name": "Mercedes-Benz",
      "model_options_attributes": [ {"name": "190-Series"}, {"name": "200-Series"}, {"name": "300-Series"}, {"name": "400-Series"}, {"name": "500-Series"}, {"name": "600-Series"}, {"name": "A-Class"}, {"name": "C-Class"}, {"name": "CL-Class"}, {"name": "CLA-Class"}, {"name": "CLK-Class"}, {"name": "CLS-Class"}, {"name": "E-Class"}, {"name": "G-Class"}, {"name": "GL-Class"}, {"name": "GLK-Class"}, {"name": "M-Class"}, {"name": "R-Class"}, {"name": "S-Class"}, {"name": "SL-Class"}, {"name": "SLK-Class"}, {"name": "SLR McLaren"}, {"name": "SLS AMG"}, {"name": "Sprinter"}, {"name": "Other"} ]
    },
    {
      "name": "Mercury",
      "model_options_attributes": [ {"name": "Capri"}, {"name": "Comet"}, {"name": "Cougar"}, {"name": "Grand Marquis"}, {"name": "Marauder"}, {"name": "Mariner"}, {"name": "Milan"}, {"name": "Montego"}, {"name": "Monterey"}, {"name": "Mountaineer"}, {"name": "Mystique"}, {"name": "Sable"}, {"name": "Topaz"}, {"name": "Tracer"}, {"name": "Villager"}, {"name": "Other"} ]
    },
    {
      "name": "MG",
      "model_options_attributes": [ {"name": "MGA"}, {"name": "MGB"}, {"name": "Midget"}, {"name": "T-Series"}, {"name": "Other"} ]
    },
    {
      "name": "Mini",
      "model_options_attributes": [ {"name": "Classic Mini"}, {"name": "Clubman"}, {"name": "Cooper"}, {"name": "Cooper S"}, {"name": "Countryman"}, {"name": "Paceman"}, {"name": "Roadster"}, {"name": "Other"} ]
    },
    {
      "name": "Mitsubishi",
      "model_options_attributes": [ {"name": "3000GT"}, {"name": "Diamante"}, {"name": "Eclipse"}, {"name": "Endeavor"}, {"name": "Evolution"}, {"name": "Galant"}, {"name": "i-MiEV"}, {"name": "Lancer"}, {"name": "Mighty Max"}, {"name": "Mirage"}, {"name": "Montero"}, {"name": "Outlander"}, {"name": "Outlander Sport"}, {"name": "Precis"}, {"name": "Raider"}, {"name": "Other"} ]
    },
    {
      "name": "Morgan",
      "model_options_attributes": [ {"name": "4/4"}, {"name": "Plus 8"}, {"name": "Plus Four"}, {"name": "Roadster"}, {"name": "Other"} ]
    },
    {
      "name": "Nissan",
      "model_options_attributes": [ {"name": "200SX"}, {"name": "240SX"}, {"name": "280ZX"}, {"name": "300ZX"}, {"name": "350Z"}, {"name": "370Z"}, {"name": "Altima"}, {"name": "Armada"}, {"name": "Cube"}, {"name": "Frontier"}, {"name": "GT-R"}, {"name": "Juke"}, {"name": "Leaf"}, {"name": "Maxima"}, {"name": "Murano"}, {"name": "NV"}, {"name": "NX"}, {"name": "Pathfinder"}, {"name": "Quest"}, {"name": "Rogue"}, {"name": "Sentra"}, {"name": "Stanza"}, {"name": "Titan"}, {"name": "Versa"}, {"name": "Xterra"}, {"name": "Other"} ]
    },
    {
      "name": "Oldsmobile",
      "model_options_attributes": [ {"name": "442"}, {"name": "Achieva"}, {"name": "Alero"}, {"name": "Aurora"}, {"name": "Bravada"}, {"name": "Ciera"}, {"name": "Custom Cruiser"}, {"name": "Cutlass"}, {"name": "Eighty-Eight"}, {"name": "Intrigue"}, {"name": "LSS"}, {"name": "Ninety-Eight"}, {"name": "Silhouette"}, {"name": "Starfire"}, {"name": "Toronado"}, {"name": "Other"} ]
    },
    {
      "name": "Opel",
      "model_options_attributes": [ {"name": "Agila"}, {"name": "Ampera"}, {"name": "Antara"}, {"name": "Arena"}, {"name": "Astra"}, {"name": "Bedford"}, {"name": "Calibra"}, {"name": "Campo"}, {"name": "Commodore"}, {"name": "Corsa"}, {"name": "Frontera"}, {"name": "Insignia"}, {"name": "Manta"}, {"name": "Meriva"}, {"name": "Mokka"}, {"name": "Monterey"}, {"name": "Movano"}, {"name": "Omega"}, {"name": "Record"}, {"name": "Senator"}, {"name": "Sintra"}, {"name": "Tigra"}, {"name": "Vectra"}, {"name": "Vivaro"}, {"name": "Other"} ]
    },
    {
      "name": "Peugeot",
      "model_options_attributes": [ {"name": "206"}, {"name": "306/307"}, {"name": "405/406"}, {"name": "607"}, {"name": "Other"} ]
    },
    {
      "name": "Plymouth",
      "model_options_attributes": [ {"name": "Acclaim"}, {"name": "Barracuda"}, {"name": "Breeze"}, {"name": "Duster"}, {"name": "Fury"}, {"name": "Grand Voyager"}, {"name": "GTX"}, {"name": "Laser"}, {"name": "Neon"}, {"name": "Prowler"}, {"name": "Road Runner"}, {"name": "Satellite"}, {"name": "Sundance"}, {"name": "Voyager"}, {"name": "Other"} ]
    },
    {
      "name": "Pontiac",
      "model_options_attributes": [ {"name": "Aztek"}, {"name": "Bonneville"}, {"name": "Catalina"}, {"name": "Fiero"}, {"name": "Firebird"}, {"name": "G3"}, {"name": "G5"}, {"name": "G6"}, {"name": "G8"}, {"name": "Grand Am"}, {"name": "Grand Prix"}, {"name": "GTO"}, {"name": "Le Mans"}, {"name": "Montana"}, {"name": "Solstice"}, {"name": "Sunbird"}, {"name": "Sunfire"}, {"name": "Tempest"}, {"name": "Torrent"}, {"name": "Trans Am"}, {"name": "Trans Sport"}, {"name": "Vibe"}, {"name": "Other"} ]
    },
    {
      "name": "Porsche",
      "model_options_attributes": [ {"name": "356"}, {"name": "718"}, {"name": "911"}, {"name": "912"}, {"name": "914"}, {"name": "924"}, {"name": "928"}, {"name": "930"}, {"name": "944"}, {"name": "964"}, {"name": "968"}, {"name": "Boxster"}, {"name": "Carrera GT"}, {"name": "Cayenne"}, {"name": "Cayman"}, {"name": "Macan"}, {"name": "Panamera"}, {"name": "Other"} ]
    },
    {
      "name": "Ram",
      "model_options_attributes": [ {"name": "1500"}, {"name": "2500"}, {"name": "3500"}, {"name": "4500"}, {"name": "5500"}, {"name": "SRT-10"}, {"name": "Dakota"}, {"name": "ProMaster"}, {"name": "Other"} ]
    },
    {
      "name": "Renault",
      "model_options_attributes": [ {"name": "19"}, {"name": "21"}, {"name": "Clio"}, {"name": "Dokker"}, {"name": "Duster"}, {"name": "Espace"}, {"name": "Express"}, {"name": "Laguna"}, {"name": "Logan"}, {"name": "Magnum"}, {"name": "Master"}, {"name": "Megane"}, {"name": "Scenic"}, {"name": "Trafic"}, {"name": "Other"} ]
    },
    {
      "name": "Rolls-Royce",
      "model_options_attributes": [ {"name": "Corniche"}, {"name": "Dawn"}, {"name": "Ghost"}, {"name": "Phantom"}, {"name": "Silver Seraph"}, {"name": "Silver Shadow"}, {"name": "Silver Spirit/Spur/Dawn"}, {"name": "Wraith"}, {"name": "Other"} ]
    },
    {
      "name": "Saab",
      "model_options_attributes": [ {"name": "900"}, {"name": "9000"}, {"name": "9-2X"}, {"name": "9-4X"}, {"name": "9-3"}, {"name": "9-5"}, {"name": "9-7x"}, {"name": "Sonett"}, {"name": "Other"} ]
    },
    {
      "name": "Saturn",
      "model_options_attributes": [ {"name": "Astra"}, {"name": "Aura"}, {"name": "Ion"}, {"name": "L-Series"}, {"name": "Outlook"}, {"name": "Relay"}, {"name": "S-Series"}, {"name": "Sky"}, {"name": "Vue"}, {"name": "Other"} ]
    },
    {
      "name": "Scion",
      "model_options_attributes": [ {"name": "FR-S"}, {"name": "iQ"}, {"name": "tC"}, {"name": "xA"}, {"name": "xB"}, {"name": "xD"}, {"name": "Other"} ]
    },
    {
      "name": "Skoda",
      "model_options_attributes": [ {"name": "100"}, {"name": "105"}, {"name": "120"}, {"name": "1203"}, {"name": "706"}, {"name": "Citigo"}, {"name": "Fabia"}, {"name": "Favorit"}, {"name": "Felicia"}, {"name": "Forman"}, {"name": "Kodiaq"}, {"name": "Octavia"}, {"name": "Praktik"}, {"name": "Rapid"}, {"name": "Roomster"}, {"name": "Superb"}, {"name": "TAZ"}, {"name": "Yeti"}, {"name": "Other"} ]
    },
    {
      "name": "Smart",
      "model_options_attributes": [ {"name": "City"}, {"name": "Forfour"}, {"name": "Fortwo"}, {"name": "Passion"}, {"name": "Pulse"}, {"name": "Pure"}, {"name": "Roadster"}, {"name": "Other"} ]
    },
    {
      "name": "Subaru",
      "model_options_attributes": [ {"name": "Baja"}, {"name": "BRZ"}, {"name": "Forester"}, {"name": "Impreza"}, {"name": "Justy"}, {"name": "Legacy"}, {"name": "Loyale"}, {"name": "Outback"}, {"name": "SVX"}, {"name": "Tribeca"}, {"name": "WRX"}, {"name": "XV Crosstrek"}, {"name": "Other"} ]
    },
    {
      "name": "Suzuki",
      "model_options_attributes": [ {"name": "Aerio"}, {"name": "Equator"}, {"name": "Esteem"}, {"name": "Forenza"}, {"name": "Grand Vitara"}, {"name": "Kizashi"}, {"name": "Reno"}, {"name": "Samurai"}, {"name": "Sidekick"}, {"name": "SX4"}, {"name": "Vitara"}, {"name": "X-90"}, {"name": "XL7"}, {"name": "Other"} ]
    },
    {
      "name": "Tesla",
      "model_options_attributes": [ {"name": "Model S"}, {"name": "Model X"}, {"name": "Roadster"}, {"name": "Other"} ]
    },
    {
      "name": "Toyota",
      "model_options_attributes": [ {"name": "86"}, {"name": "4Runner"}, {"name": "Avalon"}, {"name": "Camry"}, {"name": "Celica"}, {"name": "Corolla"}, {"name": "Cressida"}, {"name": "Echo"}, {"name": "FJ Cruiser"}, {"name": "Highlander"}, {"name": "Land Cruiser"}, {"name": "Matrix"}, {"name": "Mirai"}, {"name": "MR2"}, {"name": "Paseo"}, {"name": "Previa"}, {"name": "Prius"}, {"name": "Prius C"}, {"name": "Prius V"}, {"name": "RAV4"}, {"name": "RAV4 EV"}, {"name": "Sequoia"}, {"name": "Sienna"}, {"name": "Solara"}, {"name": "Supra"}, {"name": "T100"}, {"name": "Tacoma"}, {"name": "Tercel"}, {"name": "Tundra"}, {"name": "Venza"}, {"name": "Yaris"}, {"name": "Yaris iA"}, {"name": "Other"} ]
    },
    {
      "name": "Triumph",
      "model_options_attributes": [ {"name": "Spitfire"}, {"name": "TR3"}, {"name": "TR-6"}, {"name": "Other"} ]
    },
    {
      "name": "Volkswagen",
      "model_options_attributes": [ {"name": "Beetle - Classic"}, {"name": "Beetle-New"}, {"name": "Bus/Vanagon"}, {"name": "Cabrio"}, {"name": "CC"}, {"name": "Corrado"}, {"name": "Eos"}, {"name": "EuroVan"}, {"name": "Fox"}, {"name": "Golf"}, {"name": "Golf Alltrack"}, {"name": "Golf R"}, {"name": "Jetta"}, {"name": "Karmann Ghia"}, {"name": "Passat"}, {"name": "Phaeton"}, {"name": "Polo"}, {"name": "R32"}, {"name": "Rabbit"}, {"name": "Routan"}, {"name": "Scirocco"}, {"name": "Sharan"}, {"name": "SportWagen"}, {"name": "Squareback"}, {"name": "Thing"}, {"name": "Tiguan"}, {"name": "Touareg"}, {"name": "Type III"}, {"name": "Other"} ]
    },
    {
      "name": "Volvo",
      "model_options_attributes": [ {"name": "240"}, {"name": "740"}, {"name": "850"}, {"name": "940"}, {"name": "960"}, {"name": "C30"}, {"name": "C70"}, {"name": "S40"}, {"name": "S60"}, {"name": "S70"}, {"name": "S80"}, {"name": "S90"}, {"name": "V40"}, {"name": "V50"}, {"name": "V70"}, {"name": "V90"}, {"name": "XC (Cross Country)"}, {"name": "XC60"}, {"name": "XC70"}, {"name": "XC90"}, {"name": "Other"} ]
    },
    {
      "name": "Replica/Kit Makes",
      "model_options_attributes": [ {"name": "Other"} ]
    },
    {
      "name": "Other Makes",
      "model_options_attributes": [ {"name": "Other"} ]
    }
  ],
  "Bicycle": [
    {
      "name": "Argon 18",
      "model_options_attributes": [ {"name": "Gallium Pro Disc"}, {"name": "Gallium Pro"}, {"name": "Gallium"}, {"name": "Krypton"}, {"name": "Radon"}, {"name": "E-119 Tri+"}, {"name": "E-119 Tri"}, {"name": "E-118 Next"}, {"name": "E-117 Tri"}, {"name": "E-80"}, {"name": "Electron"}, {"name": "Electron C"}, {"name": "Xenon"}, {"name": "Other"} ]
    },
    {
      "name": "Basso",
      "model_options_attributes": [ {"name": "Diamante SV"}, {"name": "Diamante"}, {"name": "40th Anniversary"}, {"name": "Astra"}, {"name": "Astra Disc"}, {"name": "Venta"}, {"name": "Purple Label"}, {"name": "Konos"}, {"name": "Pista"}, {"name": "Fast Cross Disc"}, {"name": "Viper"}, {"name": "Ulisse"}, {"name": "Other"} ]
    },
    {
      "name": "Battaglin",
      "model_options_attributes": [ {"name": "Casanova"}, {"name": "Amarcord"}, {"name": "Altair"}, {"name": "Other"} ]
    },
    {
      "name": "Baum",
      "model_options_attributes": [ {"name": "Corretto Ti"}, {"name": "Cubano Ti"}, {"name": "Romano Ti"}, {"name": "Ristretto Fe"}, {"name": "Cortado Fe"}, {"name": "Extensa Ti"}, {"name": "Exserta Ti"}, {"name": "Turanti Ti"}, {"name": "Other"} ]
    },
    {
      "name": "Beone",
      "model_options_attributes": [ {"name": "Alpine E-bike"}, {"name": "Paris 27 SP "}, {"name": "Paris 24"}, {"name": "Pro XT 29"}, {"name": "Pro 29"}, {"name": "Race Evolution"}, {"name": "Comp"}, {"name": "E-Totem"}, {"name": "Other"} ]
    },
    {
      "name": "Bianchi",
      "model_options_attributes": [ {"name": "Duel"}, {"name": "C-Sport 1"}, {"name": "Spillo"}, {"name": "Kuma"}, {"name": "Other"} ]
    },
    {
      "name": "BMC",
      "model_options_attributes": [ {"name": "Agonist"}, {"name": "Alpenchallenge"}, {"name": "Crossmachine"}, {"name": "Sportelite"}, {"name": "Speedfox"}, {"name": "Trailfox"}, {"name": "Teamelite"}, {"name": "Timemachine"}, {"name": "Other"} ]
    },
    {
      "name": "Bottecchia",
      "model_options_attributes": [ {"name": "Alivio"}, {"name": "Acera"}, {"name": "TX55"}, {"name": "TY21"}, {"name": "Vintage"}, {"name": "Hashtag Scatto"}, {"name": "Dolce Vita"}, {"name": "Urban TownCanyon"}, {"name": ""}, {"name": ""}, {"name": ""}, {"name": ""} ]
    },
    {
      "name": "Canyon",
      "model_options_attributes": [ {"name": "Aeroad"}, {"name": "Commuter"}, {"name": "Endurace"}, {"name": "Ultimate"}, {"name": "Other"} ]
    },
    {
      "name": "Cervélo",
      "model_options_attributes": [ {"name": "S Series"}, {"name": "C Series"}, {"name": "R Series"}, {"name": "P Series"}, {"name": "T Series"}, {"name": "Other"} ]
    },
    {
      "name": "Cinelli",
      "model_options_attributes": [ {"name": "Gazzetta"}, {"name": "Gazzetta della Strada"}, {"name": "Experience"}, {"name": " Laser Mia"}, {"name": "Superstar"}, {"name": "Mash Parallax"}, {"name": "Mystic"}, {"name": "Hobootleg"}, {"name": "Other"} ]
    },
    {
      "name": "Daccordi",
      "model_options_attributes": [ {"name": "Other"} ]
    },
    {
      "name": "De Rosa",
      "model_options_attributes": [ {"name": "Protos"}, {"name": "SK"}, {"name": "King"}, {"name": "Idol"}, {"name": "Planet"}, {"name": "Nick"}, {"name": "Solo"}, {"name": "Treduecinque"}, {"name": "Nuovo Classico"}, {"name": "Corum"}, {"name": "Scandium"}, {"name": "Other"} ]
    },
    {
      "name": "Dedacciai Strada",
      "model_options_attributes": [ {"name": "Ran RS"}, {"name": "Atleta"}, {"name": "Vertigine"}, {"name": "Gladiatore 2"}, {"name": "Italia Replica"}, {"name": "Flash 2"}, {"name": "Zero Replica"}, {"name": "K-19 Titanium"}, {"name": "Supertrack"}, {"name": "Tubo"}, {"name": "Supercross"}, {"name": "Other"} ]
    },
    {
      "name": "Devinci",
      "model_options_attributes": [ {"name": "Django"}, {"name": "Minus"}, {"name": "Marshall"}, {"name": "Spartan"}, {"name": "Troy"}, {"name": "Other"} ]
    },
    {
      "name": "Endorfin",
      "model_options_attributes": [ {"name": "Carbon"}, {"name": "G18"}, {"name": "P29"}, {"name": "Speed"}, {"name": "VP"}, {"name": "Flow"}, {"name": "Other"} ]
    },
    {
      "name": "Fondriest",
      "model_options_attributes": [ {"name": "Pro Line"}, {"name": "Gf Line"}, {"name": "Easy Line"}, {"name": "Special Line"}, {"name": "Other"} ]
    },
    {
      "name": "Fuji",
      "model_options_attributes": [ {"name": "Ambient"}, {"name": "Bighorn"}, {"name": "Beartooth"}, {"name": "Rakan"}, {"name": "Reveal"}, {"name": "SLM"}, {"name": "Outland"}, {"name": "Tahoe"}, {"name": "Wendigo"}, {"name": "Other"} ]
    },
    {
      "name": "Ghost",
      "model_options_attributes": [ {"name": "Asket"}, {"name": "Dre Amr"}, {"name": "Lector"}, {"name": "Lanao"}, {"name": "Powerkid"}, {"name": "Square"}, {"name": "H Amr"}, {"name": "Other"} ]
    },
    {
      "name": "Giant",
      "model_options_attributes": [ {"name": "Contend"}, {"name": "Defy"}, {"name": "ExpressWay"}, {"name": "Propel"}, {"name": "HalfWay"}, {"name": "TCR"}, {"name": "Other"} ]
    },
    {
      "name": "Guerciotti",
      "model_options_attributes": [ {"name": "Alero"}, {"name": "Eureka"}, {"name": "Cartesio"}, {"name": "Dorado"}, {"name": "Diodema"}, {"name": "Other"} ]
    },
    {
      "name": "Independent Fabrications",
      "model_options_attributes": [ {"name": "Crown Jewel"}, {"name": "Club Racer"}, {"name": "Gravel Royal"}, {"name": "SSR"}, {"name": "Corvid"}, {"name": "XS"}, {"name": "Other"} ]
    },
    {
      "name": "Jamis Bicycles",
      "model_options_attributes": [ {"name": "Defcon"}, {"name": "Dakar"}, {"name": "Halo"}, {"name": "Dragon"}, {"name": "Komodo"}, {"name": "Dakota"}, {"name": "Nemesis"}, {"name": "Other"} ]
    },
    {
      "name": "Kestrel",
      "model_options_attributes": [ {"name": "Legend Series"}, {"name": "RT Series"}, {"name": "Talon Series"}, {"name": "5000 SL Series"}, {"name": "Talon Series"}, {"name": "Other"} ]
    },
    {
      "name": "LaPierre",
      "model_options_attributes": [ {"name": "Aircode"}, {"name": "Sensium"}, {"name": "Pulsium"}, {"name": "Audacio"}, {"name": "Shaper"}, {"name": "CX"}, {"name": "Other"} ]
    },
    {
      "name": "Litespeed",
      "model_options_attributes": [ {"name": "Ti Road"}, {"name": "Mountain"}, {"name": "All Road"}, {"name": "L-Series"}, {"name": "C-Series"}, {"name": "M-Series"}, {"name": "Other"} ]
    },
    {
      "name": "Look",
      "model_options_attributes": [ {"name": "Aerolight"}, {"name": "Monoblade"}, {"name": "Other"} ]
    },
    {
      "name": "Louis Garneau",
      "model_options_attributes": [ {"name": "Axis"}, {"name": "Gennix"}, {"name": "Garibaldi"}, {"name": "Luxor"}, {"name": "Gros"}, {"name": "Trust"}, {"name": "Urbania"}, {"name": "Stella"}, {"name": "Other"} ]
    },
    {
      "name": "Masi",
      "model_options_attributes": [ {"name": "Alare"}, {"name": "Caffe"}, {"name": "Gran Corsa"}, {"name": "Vivo"}, {"name": "CXR"}, {"name": "Other"} ]
    },
    {
      "name": "MCippolini",
      "model_options_attributes": [ {"name": "MCM"}, {"name": "NK1K"}, {"name": "RB1K"}, {"name": "BOND"}, {"name": "NKTT"}, {"name": "NKTR"}, {"name": "Speed"}, {"name": "Other"} ]
    },
    {
      "name": "Norco Bicycles",
      "model_options_attributes": [ {"name": "Valence"}, {"name": "Search"}, {"name": "Threshold"}, {"name": "Tactic"}, {"name": "VFR"}, {"name": "XFR"}, {"name": "Indie"}, {"name": "Malahat"}, {"name": "Yorkville"}, {"name": "Citadel"}, {"name": "Other"} ]
    },
    {
      "name": "Orbea",
      "model_options_attributes": [ {"name": "Orca Aero"}, {"name": "Orca"}, {"name": "Avant"}, {"name": "Terra"}, {"name": "Rallon"}, {"name": "Occam"}, {"name": "Loki"}, {"name": "Oiz"}, {"name": "Alma"}, {"name": "MX"}, {"name": "Other"} ]
    },
    {
      "name": "Parlee",
      "model_options_attributes": [ {"name": "Altum"}, {"name": "Chebacco"}, {"name": "TTiR"}, {"name": "Z-Zero"}, {"name": "Other"} ]
    },
    {
      "name": "Ridley Bikes",
      "model_options_attributes": [ {"name": "Tempo"}, {"name": "X-Trail"}, {"name": "Noah"}, {"name": "Helium"}, {"name": "Other"} ]
    },
    {
      "name": "Scott",
      "model_options_attributes": [ {"name": "Scale"}, {"name": "Spark"}, {"name": "Genius"}, {"name": "Gambler"}, {"name": "Voltage"}, {"name": "Aspect"}, {"name": "Contessa"}, {"name": "Other"} ]
    },
    {
      "name": "Speedplay",
      "model_options_attributes": [ {"name": "Aspin"}, {"name": "Vapor"}, {"name": "Prestige"}, {"name": "Stelvio"}, {"name": "San Remo"}, {"name": "Gavere"}, {"name": "Tabor"}, {"name": "Namur"}, {"name": "Other"} ]
    },
    {
      "name": "Tommaso",
      "model_options_attributes": [ {"name": "Aggraziato"}, {"name": "Corvo"}, {"name": "Ghisallo"}, {"name": "Gavia"}, {"name": "Monza"}, {"name": "Tiempa"}, {"name": "Forcella"}, {"name": "Imola"}, {"name": "Other"} ]
    },
    {
      "name": "Wilier",
      "model_options_attributes": [ {"name": "Cento10"}, {"name": "Zero"}, {"name": "GTR"}, {"name": "Montegrappa"}, {"name": "Luna"}, {"name": ""}, {"name": ""}, {"name": ""}, {"name": ""}, {"name": ""}, {"name": ""}, {"name": ""} ]
    },
    {
      "name": "Winner",
      "model_options_attributes": [ {"name": "Drive"}, {"name": "Stella"}, {"name": "Corsa"}, {"name": "Betty"}, {"name": "Candy"}, {"name": "Other"} ]
    },
    {
      "name": "Daccordi",
      "model_options_attributes": [ {"name": "Other"} ]
    }
  ],
  "Tractor": [
    {
      "name": "Agco",
      "model_options_attributes": [ {"name": "Hesston"}, {"name": "Massey Ferguson"}, {"name": "Fendt"}, {"name": "Valtra"}, {"name": "Other"}, {"name": "Other"} ]
    },
    {
      "name": "Agria",
      "model_options_attributes": [ {"name": "Serie 9000"}, {"name": "Serie 9085-9095"}, {"name": "Other"} ]
    },
    {
      "name": "Agrifull",
      "model_options_attributes": [ {"name": "Agrifull 30"}, {"name": "Agrifull 32C"}, {"name": "Agrifull 50-60"}, {"name": "Agrifull 61-80"}, {"name": "Agrifull 81-100"}, {"name": "Agrifull Derby"}, {"name": "Agrifull Jolly"}, {"name": "Agrifull Pony"}, {"name": "Other"} ]
    },
    {
      "name": "AGT",
      "model_options_attributes": [ {"name": "850/860"}, {"name": "835 TS"}, {"name": "830/835"}, {"name": "835 - FOREST VERSION"}, {"name": "Other"} ]
    },
    {
      "name": "Antonio Carraro",
      "model_options_attributes": [ {"name": "Tony"}, {"name": "TRG"}, {"name": "TRH"}, {"name": "TTR"}, {"name": "SRX"}, {"name": "TIGRE"}, {"name": "SP"}, {"name": "TC"}, {"name": "TN"}, {"name": "Other"} ]
    },
    {
      "name": "Barreiros",
      "model_options_attributes": [ {"name": "R335S"}, {"name": "R350"}, {"name": "R350S"}, {"name": "R438"}, {"name": "R440"}, {"name": "R500"}, {"name": "R545"}, {"name": "R545 I"}, {"name": "R545 IA"}, {"name": "4000"}, {"name": "4000V"}, {"name": "5000"}, {"name": "5000 VL/VR"}, {"name": "5500"}, {"name": "7000"}, {"name": "40/45"}, {"name": "50/55"}, {"name": "70/70"}, {"name": "90/90"}, {"name": "Other"} ]
    },
    {
      "name": "Belarus",
      "model_options_attributes": [ {"name": "320"}, {"name": "422"}, {"name": "550"}, {"name": "80.1"}, {"name": "622"}, {"name": "923"}, {"name": "1025"}, {"name": "1220.1"}, {"name": "1221"}, {"name": "1523"}, {"name": "1502"}, {"name": "2022"}, {"name": "2103"}, {"name": "3022ДВ"}, {"name": "3522"}, {"name": "80Х"}, {"name": "921.2"}, {"name": "921.3"}, {"name": "921.4"}, {"name": "100Х"}, {"name": "Other"} ]
    },
    {
      "name": "Branson",
      "model_options_attributes": [ {"name": "00 Series"}, {"name": "15 Series"}, {"name": "20 Series"}, {"name": "25 Series"}, {"name": "45 Series"}, {"name": "50 Series"}, {"name": "Other"} ]
    },
    {
      "name": "Buhler",
      "model_options_attributes": [ {"name": "New Holland 8670 Genesis"}, {"name": "New Holland 8670A"}, {"name": "New Holland 8770"}, {"name": "Genesis"}, {"name": "New Holland 8770A"}, {"name": "New Holland 8870 Genesis"}, {"name": "New Holland 8870A"}, {"name": "New Holland 8970"}, {"name": "New Holland 8970A"}, {"name": "New Holland G170"}, {"name": "New Holland G190"}, {"name": "New Holland G210"}, {"name": "Other"} ]
    },
    {
      "name": "Bukh",
      "model_options_attributes": [ {"name": "D-30"}, {"name": "D-45"}, {"name": "DZ-30"}, {"name": "DZ-45"}, {"name": "Hercules"}, {"name": "Juno"}, {"name": "Jupiter"}, {"name": "302"}, {"name": "302"}, {"name": "High Crop"}, {"name": "403"}, {"name": "403 Universal"}, {"name": "452"}, {"name": "452 Super"}, {"name": "554"}, {"name": "554 backhoe"}, {"name": "906"}, {"name": "956 Super"}, {"name": "Other"} ]
    },
    {
      "name": "Carraro",
      "model_options_attributes": [ {"name": "5.100"}, {"name": "6.1000"}, {"name": "7.1000"}, {"name": "8.1000"}, {"name": "23"}, {"name": "35"}, {"name": "48.4"}, {"name": "58.4"}, {"name": "73.4"}, {"name": "78.4"}, {"name": "400"}, {"name": "520"}, {"name": "540"}, {"name": "604"}, {"name": "620"}, {"name": "654"}, {"name": "702"}, {"name": "920"}, {"name": "Other"} ]
    },
    {
      "name": "Case",
      "model_options_attributes": [ {"name": "L series"}, {"name": "C series"}, {"name": "R series"}, {"name": "D series"}, {"name": "S series"}, {"name": "V series"}, {"name": "Other"} ]
    },
    {
      "name": "Caterpillar",
      "model_options_attributes": [ {"name": "D4"}, {"name": "D5"}, {"name": "D6"}, {"name": "D7"}, {"name": "D8"}, {"name": "D9"}, {"name": "D10"}, {"name": "D11"}, {"name": "Other"} ]
    },
    {
      "name": "Claas",
      "model_options_attributes": [ {"name": "Arion"}, {"name": "Atles"}, {"name": "Axion"}, {"name": "Axos"}, {"name": "Axos"}, {"name": "Celtis"}, {"name": "Challenger"}, {"name": "Dionis"}, {"name": "Elios"}, {"name": "Ergos"}, {"name": "Fructus"}, {"name": "Nexos"}, {"name": "Pales"}, {"name": "Talos"}, {"name": "Xerion"}, {"name": "Other"} ]
    },
    {
      "name": "Ebro",
      "model_options_attributes": [ {"name": "2300-6045"}, {"name": "6046-8135"}, {"name": "Other"} ]
    },
    {
      "name": "Eurotrac",
      "model_options_attributes": [ {"name": "180"}, {"name": "404"}, {"name": "F18"}, {"name": "F20"}, {"name": "F25"}, {"name": "F30"}, {"name": ""}, {"name": "F35"}, {"name": "F40"}, {"name": "F60"}, {"name": "F70"}, {"name": "F80"}, {"name": "Other"} ]
    },
    {
      "name": "Fahr",
      "model_options_attributes": [ {"name": "Fahr A"}, {"name": "Fahr D"}, {"name": "Fahr F"}, {"name": "Fahr GT"}, {"name": "Fahr H"}, {"name": "Fahr HG"}, {"name": "Fahr KT"}, {"name": "Other"} ]
    },
    {
      "name": "Farmall",
      "model_options_attributes": [ {"name": "1-plow"}, {"name": "2-plow"}, {"name": "3-plow"}, {"name": "4-plow"}, {"name": "Other"} ]
    },{
      "name": "Farmer",
      "model_options_attributes": [ {"name": "Farmer 1200 DI"}, {"name": "Other"} ]
    },
    {
      "name": "Farmtrac",
      "model_options_attributes": [ {"name": "270"}, {"name": "300"}, {"name": "400"}, {"name": "500"}, {"name": "600"}, {"name": "700"}, {"name": "3000"}, {"name": "Other"} ]
    },
    {
      "name": "Fendt",
      "model_options_attributes": [ {"name": "514"}, {"name": "516C"}, {"name": "611"}, {"name": "612"}, {"name": "615"}, {"name": "Vario 714"}, {"name": "Vario 926"}, {"name": "Vario 936"}, {"name": "Vario 960"}, {"name": "Other"} ]
    },
    {
      "name": "Ferguson",
      "model_options_attributes": [ {"name": "Brown"}, {"name": "Ford-Ferguson 9N"}, {"name": "Ford-Ferguson 2N"}, {"name": "TE20"}, {"name": "TE35"}, {"name": "TO20"}, {"name": "TO30"}, {"name": "TO35"}, {"name": "F40"}, {"name": "Other"} ]
    },
    {
      "name": "Fermec",
      "model_options_attributes": [ {"name": "600"}, {"name": "750"}, {"name": "760"}, {"name": "860"}, {"name": "960"}, {"name": "965"}, {"name": "Other"} ]
    },{
      "name": "Fiat-Allis",
      "model_options_attributes": [ {"name": "F"}, {"name": "FB"}, {"name": "FT"}, {"name": "Other"} ]
    },
    {
      "name": "New Holland",
      "model_options_attributes": [ {"name": "GT"}, {"name": "LS"}, {"name": "MY"}, {"name": "S"}, {"name": "TH"}, {"name": "Other"} ]
    },
    {
      "name": "Fordson",
      "model_options_attributes": [ {"name": "Fordson Model F"}, {"name": "Fordson Model N"}, {"name": "Fordson New Major"}, {"name": "Fordson Dexta"}, {"name": "Fordson Power Major"}, {"name": "Fordson Super"}, {"name": "Fordson Super Dexta"}, {"name": "Fortschritt"}, {"name": "Fortschritt FT"}, {"name": "Fortschritt ZT"}, {"name": "Other"} ]
    },
    {
      "name": "Goldoni",
      "model_options_attributes": [ {"name": "100"}, {"name": "200"}, {"name": "300"}, {"name": "400"}, {"name": "500"}, {"name": "600"}, {"name": "700"}, {"name": "800"}, {"name": "900"}, {"name": "1000"}, {"name": "3000"}, {"name": "Base"}, {"name": "Cluster"}, {"name": "Compact"}, {"name": "Other"} ]
    },
    {
      "name": "Hanomag",
      "model_options_attributes": [ {"name": "R"}, {"name": "Hanomag Robust"}, {"name": "Hanomag SR"}, {"name": "Hanomag SS"}, {"name": "Hanomag WC"}, {"name": "Hanomag WD"}, {"name": "Other"} ]
    },
    {
      "name": "Hattat",
      "model_options_attributes": [ {"name": "Hattat A"}, {"name": "Hattat B"}, {"name": "Hattat C"}, {"name": "Hattat H"}, {"name": "Hattat T"}, {"name": "Other"} ]
    },
    {
      "name": "Hinomoto",
      "model_options_attributes": [ {"name": "Hinomoto C"}, {"name": "Hinomoto CX"}, {"name": "Hinomoto E"}, {"name": "Hinomoto N"}, {"name": "Hinomoto M"}, {"name": "Other"} ]
    },
    {
      "name": "Hitachi",
      "model_options_attributes": [ {"name": "Hitachi D"}, {"name": "Hitachi DX"}, {"name": "Hitachi EX"}, {"name": "Hitachi SX"}, {"name": "Other"} ]
    },
    {
      "name": "Holder",
      "model_options_attributes": [ {"name": "Holder A series"}, {"name": "Holder B series"}, {"name": "Holder C series"}, {"name": "Holder E series"}, {"name": "Holder F series"}, {"name": "Holder H series"}, {"name": "Holder L series"}, {"name": "Holder M series"}, {"name": "Holder P series"}, {"name": "Holder R series"}, {"name": "Holder S series"}, {"name": "Holder V series"}, {"name": "Other"} ]
    },
    {
      "name": "Hürlimann",
      "model_options_attributes": [ {"name": "1"}, {"name": "2"}, {"name": "4"}, {"name": "B"}, {"name": "D"}, {"name": "H"}, {"name": "SX"}, {"name": "T"}, {"name": "XA"}, {"name": "H"}, {"name": "XB"}, {"name": "XE"}, {"name": "XF"}, {"name": "Other"} ]
    },
    {
      "name": "IMT",
      "model_options_attributes": [ {"name": "200"}, {"name": "300"}, {"name": "400"}, {"name": "500"}, {"name": "600"}, {"name": "2000"}, {"name": "5000"}, {"name": "Other"} ]
    },
    {
      "name": "International",
      "model_options_attributes": [ {"name": "International IH"}, {"name": "Other"} ]
    },
    {
      "name": "Iseki",
      "model_options_attributes": [ {"name": "Iseki AT"}, {"name": "Iseki ATK"}, {"name": "Other"} ]
    },
    {
      "name": "J I Case",
      "model_options_attributes": [ {"name": "L series"}, {"name": "C series"}, {"name": "R series"}, {"name": "D series"}, {"name": "S series"}, {"name": "V series"}, {"name": "Other"} ]
    },
    {
      "name": "JCB",
      "model_options_attributes": [ {"name": "100"}, {"name": "200"}, {"name": "300"}, {"name": "400"}, {"name": "500"}, {"name": "600"}, {"name": "700"}, {"name": "800"}, {"name": "1000"}, {"name": "2000"}, {"name": "3000"}, {"name": "Other"} ]
    },
    {
      "name": "John Deere",
      "model_options_attributes": [ {"name": "John Deere Model D"}, {"name": "John Deere Model R"}, {"name": "John Deere 5080 G"}, {"name": "John Deere 6330"}, {"name": "John Deere 6630"}, {"name": "John Deere 6920s"}, {"name": "John Deere 6930"}, {"name": "John Deere 9420"}, {"name": "John Deere 8345 RT"}, {"name": "John Deere 9630T"}, {"name": "John Deere 5430 Sprayer"}, {"name": "John Deere 9560 WTS HillMaster combine"}, {"name": "John Deere 9880 combine"}, {"name": "John Deere 7700"}, {"name": "Other"} ]
    },
    {
      "name": "Kioti",
      "model_options_attributes": [ {"name": "CK"}, {"name": "DK"}, {"name": "DS"}, {"name": "DX"}, {"name": "EX"}, {"name": "FX"}, {"name": "L"}, {"name": "LB"}, {"name": "LK"}, {"name": "CN"}, {"name": "RX"}, {"name": "Other"} ]
    },
    {
      "name": "Kirovets",
      "model_options_attributes": [ {"name": "Kirovets K"}, {"name": "Kirovets PAT"}, {"name": "Kirovets 9000 - 9500"}, {"name": "Kirovets T"}, {"name": "Other"} ]
    },
    {
      "name": "Komatsu",
      "model_options_attributes": [ {"name": "PW"}, {"name": "PC"}, {"name": "WA"}, {"name": "D"}, {"name": "Other"} ]
    },
    {
      "name": "Lamborghini",
      "model_options_attributes": [ {"name": "Agile"}, {"name": "Champion"}, {"name": "Crono"}, {"name": "Baureihe Crono Target"}, {"name": "Cross, F Plus"}, {"name": "Formula"}, {"name": "Grand Prix"}, {"name": "Premium"}, {"name": "Baureihe R"}, {"name": "Racing"}, {"name": "Runner"}, {"name": "Sprint"}, {"name": "Other"} ]
    },
    {
      "name": "Lanz-Bulldog",
      "model_options_attributes": [ {"name": "18-24"}, {"name": "HL"}, {"name": "HP"}, {"name": "HR2"}, {"name": "HR3"}, {"name": "HR4"}, {"name": "HR5"}, {"name": "HR6"}, {"name": "D1616"}, {"name": "D2016"}, {"name": "D2206"}, {"name": "D2402"}, {"name": "D2416"}, {"name": "D4016"}, {"name": "D7506"}, {"name": "D8506"}, {"name": "D9500"}, {"name": "Other"} ]
    },
    {
      "name": "Leyland",
      "model_options_attributes": [ {"name": "100"}, {"name": "200"}, {"name": "300"}, {"name": "400"}, {"name": "500"}, {"name": "600"}, {"name": "700"}, {"name": "800"}, {"name": "900"}, {"name": "1000"}, {"name": "2000"}, {"name": "3000"}, {"name": "4000"}, {"name": "Other"} ]
    },
    {
      "name": "Lindner",
      "model_options_attributes": [ {"name": "BF"}, {"name": "FD"}, {"name": "Geotrac"}, {"name": "HL"}, {"name": "J"}, {"name": "JW"}, {"name": "L"}, {"name": "LW"}, {"name": "S"}, {"name": "SD"}, {"name": "Other"} ]
    },
    {
      "name": "LS",
      "model_options_attributes": [ {"name": "K"}, {"name": "L"}, {"name": "LS"}, {"name": "LT"}, {"name": "N"}, {"name": "P"}, {"name": "R"}, {"name": "S"}, {"name": "U"}, {"name": "XR"}, {"name": "Other"} ]
    },
    {
      "name": "Mahindra",
      "model_options_attributes": [ {"name": "180"}, {"name": "200"}, {"name": "FE"}, {"name": "225"}, {"name": "245"}, {"name": "250"}, {"name": "265"}, {"name": "275"}, {"name": "300"}, {"name": "304"}, {"name": "350"}, {"name": "354"}, {"name": "355"}, {"name": "404"}, {"name": "454"}, {"name": "Other"} ]
    },
    {
      "name": "Manitou",
      "model_options_attributes": [ {"name": "SLT415"}, {"name": "SLT415B"}, {"name": "SLT420B"}, {"name": "BT420"}, {"name": "BT425"}, {"name": "MLT523T"}, {"name": "MLT627T"}, {"name": "MLA628-120 LSU"}, {"name": "MLT630"}, {"name": "MLT634"}, {"name": "MLT731"}, {"name": "MLT735"}, {"name": "MLT741"}, {"name": "MLT741-120 LSU"}, {"name": "MLT742HT LSU"}, {"name": "MLT845"}, {"name": "MLT940"}, {"name": "MT620"}, {"name": "MT732"}, {"name": "MT940"}, {"name": "MT1030S"}, {"name": "MT1235S"}, {"name": "MT1435SL"}, {"name": "MT1435H"}, {"name": "MT1436R"}, {"name": "MT1440"}, {"name": "MT1440A"}, {"name": "MT1440EP"}, {"name": "MT1840"}, {"name": "MT1840A"}, {"name": "MT1840EP"}, {"name": "MT1840R"}, {"name": "MY932"}, {"name": "T1033"}, {"name": "Other"} ]
    },
    {
      "name": "MB Trac",
      "model_options_attributes": [ {"name": "MB Trac 65/MB Trac 70"}, {"name": "MB Trac 700"}, {"name": "MB Trac 800"}, {"name": "MB Trac 900"}, {"name": "MB Trac 1000"}, {"name": "MB Trac 1100"}, {"name": "MB Trac 1300"}, {"name": "MB Trac 1500"}, {"name": "Other"} ]
    },
    {
      "name": "Merlo",
      "model_options_attributes": [ {"name": "Multifarmer P 30.9"}, {"name": "Multifarmer 40.7"}, {"name": "Multifarmer 40.9 CS"}, {"name": "Other"} ]
    },
    {
      "name": "MTZ",
      "model_options_attributes": [ {"name": "100"}, {"name": "200"}, {"name": "300"}, {"name": "400"}, {"name": "500"}, {"name": "600"}, {"name": "700"}, {"name": "800"}, {"name": "900"}, {"name": "Other"} ]
    },
    {
      "name": "O&K",
      "model_options_attributes": [ {"name": "O&K RH 4"}, {"name": "O&K RH 5"}, {"name": "O&K RH 6"}, {"name": "O&K RH 30"}, {"name": "O&K RH 60"}, {"name": "O&K RH 75"}, {"name": "O&K RH 40"}, {"name": "O&K RH 70"}, {"name": "O&K RH 75"}, {"name": "O&K RH 90"}, {"name": "O&K RH 120"}, {"name": "O&K RH 170"}, {"name": "O&K RH 200"}, {"name": "O&K RH 300"}, {"name": "O&K RH 340"}, {"name": "O&K RH 400"}, {"name": "Other"} ]
    },
    {
      "name": "Oliver",
      "model_options_attributes": [ {"name": "60"}, {"name": "70"}, {"name": "80"}, {"name": "90"}, {"name": "66"}, {"name": "77"}, {"name": "88"}, {"name": "70"}, {"name": "55"}, {"name": "99"}, {"name": "500"}, {"name": "550"}, {"name": "660"}, {"name": "770"}, {"name": "880"}, {"name": "990"}, {"name": "1600"}, {"name": "1650"}, {"name": "1700"}, {"name": "1800"}, {"name": "Other"} ]
    },
    {
      "name": "Renault",
      "model_options_attributes": [ {"name": "Renault D"}, {"name": "Renault HD"}, {"name": "Renault DA"}, {"name": "Renault EV"}, {"name": "Renault F"}, {"name": "Renault SV"}, {"name": "Renault V"}, {"name": "Renault A"}, {"name": "Renault B"}, {"name": "Renault F"}, {"name": "Renault TL"}, {"name": "Renault TR"}, {"name": "Renault TS"}, {"name": "Renault TX"}, {"name": "Renault Z"}, {"name": "Renault TZ"}, {"name": "Renault 100 -1000"}, {"name": "Other"} ]
    },
    {
      "name": "Schäffer",
      "model_options_attributes": [ {"name": "Schäffer 2000 series"}, {"name": "Schäffer 3000 series"}, {"name": "Schäffer 4000 series"}, {"name": "Schäffer 3300 series"}, {"name": "Schäffer 3400 series"}, {"name": "Schäffer 4300 series"}, {"name": "Schäffer 5000 series"}, {"name": "Schäffer 9300 series"}, {"name": "Schäffer 400 T series"}, {"name": "Schäffer 6300 T series"}, {"name": "Schäffer 9300 T series"}, {"name": "Other"} ]
    },
    {
      "name": "Shibaura",
      "model_options_attributes": [ {"name": "Ishikawajima AT"}, {"name": "Ishikawajima MB"}, {"name": "Ishikawajima S"}, {"name": "Other"} ]
    },
    {
      "name": "Solis",
      "model_options_attributes": [ {"name": "AHS"}, {"name": "AI"}, {"name": "Apache"}, {"name": "Deleks"}, {"name": "Montana"}, {"name": "Landini"}, {"name": "Brasil"}, {"name": "Other"} ]
    },
    {
      "name": "Steiger",
      "model_options_attributes": [ {"name": "Super"}, {"name": "Tiger"}, {"name": "Triple"}, {"name": "Wildcat"}, {"name": "Other"} ]
    },
    {
      "name": "Steyr",
      "model_options_attributes": [ {"name": "5000"}, {"name": "6000"}, {"name": "7000"}, {"name": "8000"}, {"name": "9000"}, {"name": "KM"}, {"name": "MX"}, {"name": "Other"} ]
    },
    {
      "name": "Tuber",
      "model_options_attributes": [ {"name": "35"}, {"name": "40"}, {"name": "45"}, {"name": "50"}, {"name": "340L"}, {"name": "450L"}, {"name": "Isoto 40"}, {"name": "Isoto 50"}, {"name": "Other"} ]
    },
    {
      "name": "TYM",
      "model_options_attributes": [ {"name": "T280"}, {"name": "T290"}, {"name": "T293"}, {"name": "Tong Yang TL"}, {"name": "Tong Yang TRX"}, {"name": "Tong Yang TS"}, {"name": "Tong Yang Case IH"}, {"name": "Tong Yang Dorado"}, {"name": "Tong Yang SAME"}, {"name": "Other"} ]
    },
    {
      "name": "Unimog",
      "model_options_attributes": [ {"name": "404"}, {"name": "1000"}, {"name": "U5000"}, {"name": "800"}, {"name": "Other"} ]
    },
    {
      "name": "Ursus",
      "model_options_attributes": [ {"name": "1000"}, {"name": "2000"}, {"name": "3000"}, {"name": "4000"}, {"name": "5000"}, {"name": "6000"}, {"name": "7000"}, {"name": "8000"}, {"name": "Other"} ]
    },
    {
      "name": "UTB",
      "model_options_attributes": [ {"name": "Universal 100"}, {"name": "Universal 200"}, {"name": "Universal 300"}, {"name": "Universal 400"}, {"name": "Universal 500"}, {"name": "Universal 600"}, {"name": "Universal 700"}, {"name": "Universal 800"}, {"name": "Universal 900"}, {"name": "Universal 1000"}, {"name": "Universal S"}, {"name": "Universal 1900"}, {"name": "Universal IAR"}, {"name": "Universal Romaero"}, {"name": "Other"} ]
    },
    {
      "name": "Valpadana",
      "model_options_attributes": [ {"name": "9500"}, {"name": "9565"}, {"name": "9565"}, {"name": "9583"}, {"name": "9585"}, {"name": "9695 APR"}, {"name": "9695 ISM"}, {"name": "9695 ISR"}, {"name": "36100 F"}, {"name": "36100 GE"}, {"name": "36100 GT"}, {"name": "36105 F"}, {"name": "36105 GE"}, {"name": "36105 GT"}, {"name": "96105 ARM"}, {"name": "96105 ARR"}, {"name": "96105 ISM"}, {"name": "96105 ISR"}, {"name": "Jupiter 40"}, {"name": "Jupiter 45"}, {"name": "Jupiter 50"}, {"name": "MTA 1533"}, {"name": "Victor 55 S"}, {"name": "Victor 65 S"}, {"name": "Victor 70 S"}, {"name": "Victor 75"}, {"name": "Other"} ]
    },
    {
      "name": "Valtra",
      "model_options_attributes": [ {"name": "T120"}, {"name": "T121"}, {"name": "T121 Classic"}, {"name": "T121 HiTech"}, {"name": "T130"}, {"name": "T132"}, {"name": "T140"}, {"name": "Other"} ]
    },
    {
      "name": "Versatile",
      "model_options_attributes": [ {"name": "125"}, {"name": "145"}, {"name": "150 Bi-Directional"}, {"name": "160 Bi-Directional"}, {"name": "256 Bi-Directional"}, {"name": "256 Bi-Directional Industrial"}, {"name": "276 Bi-Directional"}, {"name": "300"}, {"name": "500"}, {"name": "700"}, {"name": "750"}, {"name": "800"}, {"name": "855"}, {"name": "875"}, {"name": "876"}, {"name": "895"}, {"name": "900"}, {"name": "950"}, {"name": "955"}, {"name": "956"}, {"name": "975"}, {"name": "Big Roy 1080"}, {"name": "Other"} ]
    },
    {
      "name": "White",
      "model_options_attributes": [ {"name": "200"}, {"name": "300"}, {"name": "400"}, {"name": "500"}, {"name": "600"}, {"name": "700"}, {"name": "800"}, {"name": "2800"}, {"name": "3242"}, {"name": "6342"}, {"name": "Other"} ]
    },
    {
      "name": "Zetor",
      "model_options_attributes": [ {"name": "8011"}, {"name": "8045"}, {"name": "8111"}, {"name": "8145"}, {"name": "10011"}, {"name": "10045"}, {"name": "10111"}, {"name": "10145"}, {"name": "10211"}, {"name": "10245"}, {"name": "10520"}, {"name": "10540"}, {"name": "12011"}, {"name": "12045"}, {"name": "12111"}, {"name": "12145"}, {"name": "14145"}, {"name": "16045"}, {"name": "16145"}, {"name": "Other"} ]
    }
  ],
  "Yacht": [
    {
      "name": "Absolute",
      "model_options_attributes": [ {"name": "Navetta"}, {"name": "Flybridge"}, {"name": "Sport Yacht"}, {"name": "Sport Line"}, {"name": "Other"} ]
    },
    {
      "name": "Allures",
      "model_options_attributes": [ {"name": "Allures 39.9"}, {"name": "Allures 45.9"}, {"name": "Allures 52"}, {"name": "Allures 45"}, {"name": "Other"} ]
    },
    {
      "name": "Alumacraft",
      "model_options_attributes": [ {"name": "Trophy"}, {"name": "Dominator"}, {"name": "Competitor"}, {"name": "Classic"}, {"name": "Pro"}, {"name": "T-Pro"}, {"name": "Prowler"}, {"name": "Bay"}, {"name": "Crappie"}, {"name": "All Welds"}, {"name": "MV Tillers"}, {"name": "Sierra"}, {"name": "Riveted Jons"}, {"name": "Voyageur"}, {"name": "Escape"}, {"name": "Edge"}, {"name": "Other"} ]
    },
    {
      "name": "Alumaweld",
      "model_options_attributes": [ {"name": "Alumaweld Talon"}, {"name": "Alumaweld Sport"}, {"name": "Alumaweld Free"}, {"name": "Drifter"}, {"name": "Alumaweld Stryker"}, {"name": "Alumaweld Super Vee"}, {"name": "Alumaweld Columbia"}, {"name": "Alumaweld Intruder Outboard"}, {"name": "Other"} ]
    },
    {
      "name": "Amel",
      "model_options_attributes": [ {"name": "Amel 50"}, {"name": "Amel 55"}, {"name": "Amel 64"}, {"name": "Other"} ]
    },
    {
      "name": "Babro Yachting",
      "model_options_attributes": [ {"name": "Classic"}, {"name": "Newline"}, {"name": "Kruiser Open Kuip"}, {"name": "Tridente"}, {"name": "Trawler"}, {"name": "Kruiser"}, {"name": "Achterkajuit"}, {"name": "Other"} ]
    },
    {
      "name": "Baia",
      "model_options_attributes": [ {"name": "Coupe"}, {"name": "Open"}, {"name": "Sevolution"}, {"name": "Other"} ]
    },
    {
      "name": "Bella",
      "model_options_attributes": [ {"name": "Cabin Cruisers"}, {"name": "Hard-Top Boats"}, {"name": "Day Cruisers"}, {"name": "Open Boats"}, {"name": "Other"} ]
    },
    {
      "name": "Beneteau",
      "model_options_attributes": [ {"name": "Sense"}, {"name": "Oceanis"}, {"name": "First"}, {"name": "Antares Inboard"}, {"name": "Antares Outboard"}, {"name": "Barracuda"}, {"name": "Flyer"}, {"name": "Other"} ]
    },
    {
      "name": "Chris Craft",
      "model_options_attributes": [ {"name": "Capri series"}, {"name": "Carina series"}, {"name": "Corsair series"}, {"name": "Launch series"}, {"name": "Calypso series"}, {"name": "Catalina series"}, {"name": "Other"} ]
    },
    {
      "name": "Crestliner",
      "model_options_attributes": [ {"name": "Fish & Sport"}, {"name": "Multispecies"}, {"name": "Coastal"}, {"name": "Bass & Crappie"}, {"name": "Hunt / Utility"}, {"name": "Other"} ]
    },
    {
      "name": "Crownline",
      "model_options_attributes": [ {"name": "Super Sport"}, {"name": "Cross Sport"}, {"name": "Eclipse"}, {"name": "Sport Cuddy"}, {"name": "Cruiser"}, {"name": "Sport Yacht"}, {"name": "Other"} ]
    },
    {
      "name": "De Alm",
      "model_options_attributes": [ {"name": "Delfino"}, {"name": "Almtrawler"}, {"name": "Kotters"}, {"name": "Almclassic"}, {"name": "Almsloep"}, {"name": "Other"} ]
    },
    {
      "name": "D. Drettmann",
      "model_options_attributes": [ {"name": "Motor Yachts"}, {"name": "Explorer Yachts"}, {"name": "Other"} ]
    },
    {
      "name": "Drago Boats",
      "model_options_attributes": [ {"name": "Yacht Line"}, {"name": "Sport Line"}, {"name": "Fishing Line"}, {"name": "Other"} ]
    },
    {
      "name": "Elan Marine",
      "model_options_attributes": [ {"name": "E-series"}, {"name": "S-series"}, {"name": "GT-series"}, {"name": "Impression"}, {"name": "Other"} ]
    },
    {
      "name": "Fairline Boats",
      "model_options_attributes": [ {"name": "Targa"}, {"name": "Squadron"}, {"name": "Other"} ]
    },
    {
      "name": "Formula Boats",
      "model_options_attributes": [ {"name": "Bowrider"}, {"name": "Crossover Bowrider"}, {"name": "Super Sport"}, {"name": "FX"}, {"name": "Sun Sport"}, {"name": "Performance Cruiser"}, {"name": "Other"} ]
    },
    {
      "name": "Galeon",
      "model_options_attributes": [ {"name": "Sport Cruiser"}, {"name": "Hardtop"}, {"name": "Flybridge"}, {"name": "Skydeck"}, {"name": "Other"} ]
    },
    {
      "name": "Grand Marine",
      "model_options_attributes": [ {"name": "Silver Line Tenders"}, {"name": "Silver Line Riders"}, {"name": "Silver Line Cruisers"}, {"name": "Golden Line Tenders"}, {"name": "Ranger"}, {"name": "Other"} ]
    },
    {
      "name": "International Shipyards Ancona",
      "model_options_attributes": [ {"name": "Sport"}, {"name": "Granturismo"}, {"name": "Classic"}, {"name": "Varuna"}, {"name": "Yara"}, {"name": "Other"} ]
    },{
      "name": "Invictus",
      "model_options_attributes": [ {"name": "GT"}, {"name": "TT"}, {"name": "FX"}, {"name": "SX"}, {"name": "Other"} ]
    },
    {
      "name": "J Composites",
      "model_options_attributes": [ {"name": "Dual purpose e series"}, {"name": "Sport"}, {"name": "Other"} ]
    },
    {
      "name": "Karnic Powerboats",
      "model_options_attributes": [ {"name": "Smart1 Line"}, {"name": "Bluewater Line"}, {"name": "Open Line"}, {"name": "Storm Line"}, {"name": "Cruiser Line"}, {"name": "Other"} ]
    },
    {
      "name": "Kral",
      "model_options_attributes": [ {"name": "580"}, {"name": "700"}, {"name": "990"}, {"name": "Other"} ]
    },
    {
      "name": "Monte Carlo Yachts",
      "model_options_attributes": [ {"name": "Monte Carlo M"}, {"name": "Monte Carlo C"}, {"name": "Other"} ]
    },
    {
      "name": "Correct Craft",
      "model_options_attributes": [ {"name": "Wake"}, {"name": "Ski"}, {"name": "Other"} ]
    },
    {
      "name": "Nimbus Group",
      "model_options_attributes": [ {"name": "Coupe Cruisers"}, {"name": "Nova"}, {"name": "Day Cuiser"}, {"name": "Other"} ]
    },
    {
      "name": "Oyster",
      "model_options_attributes": [ {"name": "400"}, {"name": "500"}, {"name": "600"}, {"name": "700"}, {"name": "Other"} ]
    },
    {
      "name": "Princess Yachts",
      "model_options_attributes": [ {"name": "M Class"}, {"name": "Flybridge"}, {"name": "V Class"}, {"name": "S Class"}, {"name": "Other"} ]
    },
    {
      "name": "Riviera",
      "model_options_attributes": [ {"name": "Flybridge Yachts"}, {"name": "Sport Yachts"}, {"name": "SUV Yachts"}, {"name": "Sport Motor Yachts"}, {"name": "Other"} ]
    },
    {
      "name": "SeaRay",
      "model_options_attributes": [ {"name": "SPX Series"}, {"name": "Sun Sport Series"}, {"name": "Sport Series"}, {"name": "SLX Series"}, {"name": "SDX Series"}, {"name": "Sport Cruisers"}, {"name": "L-Class"}, {"name": "Other"} ]
    },
    {
      "name": "Tahoe Boats",
      "model_options_attributes": [ {"name": "Sky & Fish boats"}, {"name": "Runaboat boats"}, {"name": "Deck boats"}, {"name": "Other"} ]
    },
    {
      "name": "Tracker Boats",
      "model_options_attributes": [ {"name": "Mod V Bass Boats"}, {"name": "Deep V Multi-Species Boats"}, {"name": "All-Purpose Jon Boats"}, {"name": "Other"} ]
    },
    {
      "name": "Yamarin",
      "model_options_attributes": [ {"name": "Cabin"}, {"name": "Center Console"}, {"name": "Bow Rider"}, {"name": "Other"} ]
    },
    {
      "name": "Zodiac Marine",
      "model_options_attributes": [ {"name": "Sport Cruiser"}, {"name": "Hardtop"}, {"name": "Flybridge"}, {"name": "Skydeck"}, {"name": "Other"} ]
    }
  ]
}
